<?xml version="1.0" encoding="UTF-8"?>
<svg width="128mm" height="128mm" version="1.1" viewBox="0 0 128 128" xmlns="http://www.w3.org/2000/svg">
 <g transform="translate(0,-169)">
  <path transform="matrix(.26458 0 0 .26458 0 169)" d="m0 0v483.78h483.78v-483.78h-483.78zm241.89 54.287a187.6 187.6 0 0 1 187.6 187.6 187.6 187.6 0 0 1-187.6 187.6 187.6 187.6 0 0 1-187.6-187.6 187.6 187.6 0 0 1 187.6-187.6z" fill="#016fb9" stroke="#333" stroke-linejoin="round" stroke-width="0"/>
 </g>
</svg>
